<svg width="35" height="22" viewBox="0 0 35 22" fill="none" xmlns="http://www.w3.org/2000/svg">
<g clip-path="url(#clip0)">
<path d="M0.699402 2.74466C0.699402 1.22884 1.97059 3.05176e-05 3.53867 3.05176e-05H31.9314C33.4995 3.05176e-05 34.7706 1.22884 34.7706 2.74466V19.2124C34.7706 20.7282 33.4995 21.957 31.9314 21.957H3.53867C1.97059 21.957 0.699402 20.7282 0.699402 19.2124V2.74466Z" fill="#FCE0CF"/>
<path d="M20.986 10.964C20.9886 10.3741 20.7598 9.78338 20.2993 9.3382C19.8378 8.8921 19.2252 8.6711 18.6137 8.67465C18.6108 8.67465 18.6079 8.67447 18.6049 8.67447C17.277 8.67447 16.2237 9.69241 16.2237 10.9764C16.2237 12.2477 17.29 13.2782 18.6049 13.2782C19.9331 13.2782 20.9863 12.26 20.9863 10.9764C20.9863 10.9722 20.986 10.9682 20.986 10.964Z" fill="#F26E21"/>
<path d="M15.7813 11.9507C15.4254 12.2952 15.0969 12.4297 14.7431 12.437C13.8811 12.4295 13.2474 11.8125 13.2474 10.9327C13.2474 10.4898 13.4209 10.1269 13.6956 9.8168C13.9533 9.58031 14.2853 9.42751 14.6671 9.42751C15.0791 9.42751 15.3998 9.56029 15.7659 9.91444V8.89632C15.3999 8.71934 15.0791 8.63075 14.6671 8.63075C14.0849 8.67097 13.5361 8.89834 13.115 9.25536C12.9937 9.3609 12.8774 9.4774 12.7788 9.61074C12.4713 9.99604 12.2854 10.4679 12.2854 10.9771C12.2854 12.2607 13.339 13.2346 14.667 13.2346C14.6735 13.2346 14.6798 13.234 14.6861 13.2339C14.695 13.2341 14.7039 13.2346 14.7127 13.2346C15.079 13.2346 15.3998 13.1462 15.8119 12.9691L15.7813 11.9507C15.7659 11.9657 15.7967 11.9796 15.7813 11.9937V11.9507Z" fill="#2B2B2B"/>
<path d="M23.9923 9.26516L22.9552 11.7299L21.7645 8.80804H20.803L22.6804 13.2791H23.1842L25.1533 8.80804H24.1918L23.9923 9.26516Z" fill="#2B2B2B"/>
<path d="M25.5204 10.7559V13.1465H27.9934H28.039V12.438H27.2605H26.4363V11.6414V11.2431H27.9934V10.4903H26.4363V9.56072H28.039V8.80804H25.5204V10.7559Z" fill="#2B2B2B"/>
<path d="M4.82115 8.80893H3.53867V13.1474H4.82108C5.50789 13.1474 6.01155 12.9702 6.4237 12.6603C6.92736 12.2619 7.24806 11.6423 7.24806 10.9784C7.24812 9.69427 6.28627 8.80893 4.82115 8.80893ZM5.87432 12.085C5.59953 12.3062 5.23317 12.4389 4.6836 12.4389H4.40881V9.56155H4.63775C5.18732 9.56155 5.55368 9.65007 5.82853 9.91557C6.14904 10.181 6.33231 10.5797 6.33231 10.9782C6.3781 11.3766 6.19495 11.8191 5.87432 12.085Z" fill="#2B2B2B"/>
<path d="M8.53054 8.80785H7.66046V13.1462H8.53054V8.80785Z" fill="#2B2B2B"/>
<path d="M10.7287 10.4908C10.1793 10.3137 10.0417 10.1808 10.0417 9.95958C10.0417 9.69396 10.3165 9.47265 10.6829 9.47265C10.9577 9.47265 11.1866 9.56124 11.4156 9.82686L11.8736 9.25141C11.5072 8.9414 11.0494 8.76454 10.5456 8.76454C9.76693 8.76454 9.12579 9.29579 9.12579 10.0038C9.12579 10.6237 9.40083 10.8893 10.225 11.1992C10.5914 11.3318 10.7288 11.3762 10.8205 11.4648C11.0034 11.5532 11.0951 11.7304 11.0951 11.9072C11.0951 12.2615 10.8205 12.5271 10.4081 12.5271C9.99562 12.5271 9.62957 12.3058 9.44636 11.9516L8.89679 12.4829C9.30913 13.0583 9.81285 13.3239 10.454 13.3239C11.3698 13.3239 12.0106 12.7484 12.0106 11.9072C12.0108 11.1549 11.7362 10.845 10.7287 10.4908Z" fill="#2B2B2B"/>
<path d="M30.5124 11.3313C31.199 11.1987 31.5655 10.7558 31.5655 10.092C31.5655 9.29528 30.9701 8.80804 29.9628 8.80804H28.6346V13.1465H29.5047V11.4199H29.6423L30.8784 13.1465H31.9318L30.5124 11.3313ZM29.7794 10.8H29.5048V9.47214H29.7794C30.329 9.47214 30.6497 9.69339 30.6497 10.1364C30.6497 10.5788 30.329 10.8 29.7794 10.8Z" fill="#2B2B2B"/>
</g>
<defs>
<clipPath id="clip0">
<rect width="34.0712" height="21.957" fill="white" transform="translate(0.699402)"/>
</clipPath>
</defs>
</svg>
