<svg width="60" height="60" viewBox="0 0 60 60" fill="none" xmlns="http://www.w3.org/2000/svg">
<path d="M30 0.833328C46.4325 0.833328 59.1667 12.8704 59.1667 29.125C59.1667 45.3796 46.4325 57.4167 30 57.4167C27.1479 57.424 24.3078 57.0473 21.5563 56.2967C21.0394 56.1546 20.4895 56.1947 19.9988 56.4104L14.2121 58.9654C13.8625 59.1199 13.4802 59.1862 13.099 59.1584C12.7178 59.1305 12.3492 59.0095 12.0258 58.8058C11.7023 58.6022 11.4338 58.3222 11.2439 57.9904C11.054 57.6587 10.9485 57.2854 10.9367 56.9033L10.7763 51.7117C10.7657 51.396 10.691 51.0858 10.5566 50.7999C10.4222 50.5141 10.231 50.2586 9.99459 50.0492C4.31876 44.9771 0.833344 37.6329 0.833344 29.125C0.833344 12.8704 13.5704 0.833328 30 0.833328ZM12.4854 37.3996C11.6629 38.7033 13.2671 40.1733 14.495 39.24L23.6971 32.2575C24.0008 32.0282 24.3709 31.9042 24.7515 31.9042C25.132 31.9042 25.5021 32.0282 25.8058 32.2575L32.6221 37.3617C33.1056 37.7243 33.659 37.9829 34.2474 38.1211C34.8358 38.2592 35.4464 38.2739 36.0408 38.1643C36.6352 38.0547 37.2004 37.8231 37.7008 37.4842C38.2013 37.1452 38.626 36.7063 38.9483 36.195L47.5146 22.6033C48.3371 21.2967 46.7329 19.8267 45.505 20.7571L36.3029 27.7454C35.9992 27.9747 35.6291 28.0987 35.2486 28.0987C34.868 28.0987 34.4979 27.9747 34.1942 27.7454L27.3779 22.6412C26.8944 22.2786 26.341 22.02 25.7526 21.8818C25.1642 21.7437 24.5536 21.729 23.9592 21.8386C23.3648 21.9482 22.7996 22.1798 22.2992 22.5187C21.7988 22.8577 21.374 23.2966 21.0517 23.8079L12.4854 37.3996Z" fill="#C4C4C4"/>
</svg>
